module gitlab.com/golang_development/gostorages

go 1.21.4

require (
	cloud.google.com/go/storage v1.35.1
	github.com/aws/aws-sdk-go-v2 v1.23.5
	github.com/aws/aws-sdk-go-v2/config v1.25.11
	github.com/aws/aws-sdk-go-v2/credentials v1.16.9
	github.com/aws/aws-sdk-go-v2/feature/s3/manager v1.15.4
	github.com/aws/aws-sdk-go-v2/service/s3 v1.47.2
	github.com/minio/minio-go/v7 v7.0.64
	github.com/pkg/errors v0.9.1
	google.golang.org/api v0.152.0
)

require (
	cloud.google.com/go v0.111.0 // indirect
	cloud.google.com/go/compute v1.23.3 // indirect
	cloud.google.com/go/compute/metadata v0.2.3 // indirect
	cloud.google.com/go/iam v1.1.5 // indirect
	github.com/aws/aws-sdk-go-v2/aws/protocol/eventstream v1.5.3 // indirect
	github.com/aws/aws-sdk-go-v2/feature/ec2/imds v1.14.9 // indirect
	github.com/aws/aws-sdk-go-v2/internal/configsources v1.2.8 // indirect
	github.com/aws/aws-sdk-go-v2/internal/endpoints/v2 v2.5.8 // indirect
	github.com/aws/aws-sdk-go-v2/internal/ini v1.7.1 // indirect
	github.com/aws/aws-sdk-go-v2/internal/v4a v1.2.8 // indirect
	github.com/aws/aws-sdk-go-v2/service/internal/accept-encoding v1.10.3 // indirect
	github.com/aws/aws-sdk-go-v2/service/internal/checksum v1.2.8 // indirect
	github.com/aws/aws-sdk-go-v2/service/internal/presigned-url v1.10.8 // indirect
	github.com/aws/aws-sdk-go-v2/service/internal/s3shared v1.16.8 // indirect
	github.com/aws/aws-sdk-go-v2/service/sso v1.18.2 // indirect
	github.com/aws/aws-sdk-go-v2/service/ssooidc v1.21.2 // indirect
	github.com/aws/aws-sdk-go-v2/service/sts v1.26.2 // indirect
	github.com/aws/smithy-go v1.18.1 // indirect
	github.com/dustin/go-humanize v1.0.1 // indirect
	github.com/go-logr/logr v1.3.0 // indirect
	github.com/go-logr/stdr v1.2.2 // indirect
	github.com/golang/groupcache v0.0.0-20210331224755-41bb18bfe9da // indirect
	github.com/golang/protobuf v1.5.3 // indirect
	github.com/google/s2a-go v0.1.7 // indirect
	github.com/google/uuid v1.4.0 // indirect
	github.com/googleapis/enterprise-certificate-proxy v0.3.2 // indirect
	github.com/googleapis/gax-go/v2 v2.12.0 // indirect
	github.com/jmespath/go-jmespath v0.4.0 // indirect
	github.com/json-iterator/go v1.1.12 // indirect
	github.com/klauspost/compress v1.16.7 // indirect
	github.com/klauspost/cpuid/v2 v2.2.5 // indirect
	github.com/minio/md5-simd v1.1.2 // indirect
	github.com/minio/sha256-simd v1.0.1 // indirect
	github.com/modern-go/concurrent v0.0.0-20180306012644-bacd9c7ef1dd // indirect
	github.com/modern-go/reflect2 v1.0.2 // indirect
	github.com/rs/xid v1.5.0 // indirect
	github.com/sirupsen/logrus v1.9.3 // indirect
	go.opencensus.io v0.24.0 // indirect
	go.opentelemetry.io/otel v1.21.0 // indirect
	go.opentelemetry.io/otel/metric v1.21.0 // indirect
	go.opentelemetry.io/otel/trace v1.21.0 // indirect
	golang.org/x/crypto v0.16.0 // indirect
	golang.org/x/net v0.19.0 // indirect
	golang.org/x/oauth2 v0.15.0 // indirect
	golang.org/x/sync v0.5.0 // indirect
	golang.org/x/sys v0.15.0 // indirect
	golang.org/x/text v0.14.0 // indirect
	golang.org/x/time v0.5.0 // indirect
	golang.org/x/xerrors v0.0.0-20231012003039-104605ab7028 // indirect
	google.golang.org/appengine v1.6.8 // indirect
	google.golang.org/genproto v0.0.0-20231127180814-3a041ad873d4 // indirect
	google.golang.org/genproto/googleapis/api v0.0.0-20231127180814-3a041ad873d4 // indirect
	google.golang.org/genproto/googleapis/rpc v0.0.0-20231127180814-3a041ad873d4 // indirect
	google.golang.org/grpc v1.59.0 // indirect
	google.golang.org/protobuf v1.31.0 // indirect
	gopkg.in/ini.v1 v1.67.0 // indirect
)
